{
    "ei_name_last": {
        "coords": [62, 136],
        "font_size": 11,
        "align": "left"
    },
    "ei_name_first": {
        "coords": [218, 136],
        "font_size": 11,
        "align": "left"
    },
    "ei_name_middle": {
        "coords": [394, 136],
        "font_size": 11,
        "align": "left"
    }
}
